{
  "kind": "singleType",
  "collectionName": "mchw_homes",
  "info": {
    "singularName": "mchw-home",
    "pluralName": "mchw-homes",
    "displayName": "MCHW Home"
  },
  "options": {
    "draftAndPublish": true
  },
  "pluginOptions": {},
  "attributes": {
    "page_title": {
      "type": "string",
      "required": true,
      "maxLength": 200
    },
    "page_subheading": {
      "type": "string",
      "required": true,
      "maxLength": 200
    },
    "body_text": {
      "type": "richtext"
    },
    "discipline_cards": {
      "type": "component",
      "repeatable": true,
      "component": "ui.discipline-cards"
    },
    "leaderboard": {
      "type": "component",
      "repeatable": false,
      "component": "advert.leaderboard"
    },
    "show_leaderboard": {
      "type": "boolean",
      "default": true
    },
    "notices": {
      "type": "relation",
      "relation": "oneToMany",
      "target": "api::notices.notices"
    },
    "hero_image": {
      "allowedTypes": [
        "images"
      ],
      "type": "media",
      "multiple": true,
      "required": true
    }
  }
}
