{
  "name": "Author",
  "code": "strapi-author",
  "description": "Authors can manage the content they have created.",
  "permissions": [
    {
      "action": "plugin::content-manager.explorer.create",
      "subject": "api::dmrb-archive.dmrb-archive",
      "properties": {
        "fields": [
          "page_title",
          "page_subheading",
          "notices",
          "search_field.label",
          "search_field.help_text",
          "search_field.placeholder",
          "start_field.label",
          "start_field.help_text",
          "start_field.placeholder",
          "end_field.label",
          "end_field.help_text",
          "end_field.placeholder"
        ]
      },
      "conditions": [
        "admin::is-creator"
      ]
    },
    {
      "action": "plugin::content-manager.explorer.delete",
      "subject": "api::dmrb-archive.dmrb-archive",
      "properties": {},
      "conditions": [
        "admin::is-creator"
      ]
    },
    {
      "action": "plugin::content-manager.explorer.read",
      "subject": "api::dmrb-archive.dmrb-archive",
      "properties": {
        "fields": [
          "page_title",
          "page_subheading",
          "notices",
          "search_field.label",
          "search_field.help_text",
          "search_field.placeholder",
          "start_field.label",
          "start_field.help_text",
          "start_field.placeholder",
          "end_field.label",
          "end_field.help_text",
          "end_field.placeholder"
        ]
      },
      "conditions": [
        "admin::is-creator"
      ]
    },
    {
      "action": "plugin::content-manager.explorer.update",
      "subject": "api::dmrb-archive.dmrb-archive",
      "properties": {
        "fields": [
          "page_title",
          "page_subheading",
          "notices",
          "search_field.label",
          "search_field.help_text",
          "search_field.placeholder",
          "start_field.label",
          "start_field.help_text",
          "start_field.placeholder",
          "end_field.label",
          "end_field.help_text",
          "end_field.placeholder"
        ]
      },
      "conditions": [
        "admin::is-creator"
      ]
    },
    {
      "action": "plugin::content-manager.explorer.create",
      "subject": "api::dmrb-contact-page.dmrb-contact-page",
      "properties": {
        "fields": [
          "page_title",
          "page_subheading",
          "body_text"
        ]
      },
      "conditions": [
        "admin::is-creator"
      ]
    },
    {
      "action": "plugin::content-manager.explorer.delete",
      "subject": "api::dmrb-contact-page.dmrb-contact-page",
      "properties": {},
      "conditions": [
        "admin::is-creator"
      ]
    },
    {
      "action": "plugin::content-manager.explorer.read",
      "subject": "api::dmrb-contact-page.dmrb-contact-page",
      "properties": {
        "fields": [
          "page_title",
          "page_subheading",
          "body_text"
        ]
      },
      "conditions": [
        "admin::is-creator"
      ]
    },
    {
      "action": "plugin::content-manager.explorer.update",
      "subject": "api::dmrb-contact-page.dmrb-contact-page",
      "properties": {
        "fields": [
          "page_title",
          "page_subheading",
          "body_text"
        ]
      },
      "conditions": [
        "admin::is-creator"
      ]
    },
    {
      "action": "plugin::content-manager.explorer.create",
      "subject": "api::dmrb-document-pages.dmrb-document-pages",
      "properties": {
        "fields": [
          "notices",
          "document_contact_field"
        ]
      },
      "conditions": [
        "admin::is-creator"
      ]
    },
    {
      "action": "plugin::content-manager.explorer.delete",
      "subject": "api::dmrb-document-pages.dmrb-document-pages",
      "properties": {},
      "conditions": [
        "admin::is-creator"
      ]
    },
    {
      "action": "plugin::content-manager.explorer.read",
      "subject": "api::dmrb-document-pages.dmrb-document-pages",
      "properties": {
        "fields": [
          "notices",
          "document_contact_field"
        ]
      },
      "conditions": [
        "admin::is-creator"
      ]
    },
    {
      "action": "plugin::content-manager.explorer.update",
      "subject": "api::dmrb-document-pages.dmrb-document-pages",
      "properties": {
        "fields": [
          "notices",
          "document_contact_field"
        ]
      },
      "conditions": [
        "admin::is-creator"
      ]
    },
    {
      "action": "plugin::content-manager.explorer.create",
      "subject": "api::dmrb-help.dmrb-help",
      "properties": {
        "fields": [
          "page_title",
          "page_subheading",
          "notices"
        ]
      },
      "conditions": [
        "admin::is-creator"
      ]
    },
    {
      "action": "plugin::content-manager.explorer.delete",
      "subject": "api::dmrb-help.dmrb-help",
      "properties": {},
      "conditions": [
        "admin::is-creator"
      ]
    },
    {
      "action": "plugin::content-manager.explorer.read",
      "subject": "api::dmrb-help.dmrb-help",
      "properties": {
        "fields": [
          "page_title",
          "page_subheading",
          "notices"
        ]
      },
      "conditions": [
        "admin::is-creator"
      ]
    },
    {
      "action": "plugin::content-manager.explorer.update",
      "subject": "api::dmrb-help.dmrb-help",
      "properties": {
        "fields": [
          "page_title",
          "page_subheading",
          "notices"
        ]
      },
      "conditions": [
        "admin::is-creator"
      ]
    },
    {
      "action": "plugin::content-manager.explorer.create",
      "subject": "api::dmrb-home.dmrb-home",
      "properties": {
        "fields": [
          "page_title",
          "page_subheading",
          "body_text",
          "discipline_cards.title",
          "discipline_cards.description",
          "discipline_cards.icon_name",
          "discipline_cards.url",
          "leaderboard.body",
          "leaderboard.link.link_text",
          "leaderboard.link.url",
          "leaderboard.link.target_blank",
          "leaderboard.image",
          "show_leaderboard",
          "notices",
          "hero_image"
        ]
      },
      "conditions": [
        "admin::is-creator"
      ]
    },
    {
      "action": "plugin::content-manager.explorer.delete",
      "subject": "api::dmrb-home.dmrb-home",
      "properties": {},
      "conditions": [
        "admin::is-creator"
      ]
    },
    {
      "action": "plugin::content-manager.explorer.read",
      "subject": "api::dmrb-home.dmrb-home",
      "properties": {
        "fields": [
          "page_title",
          "page_subheading",
          "body_text",
          "discipline_cards.title",
          "discipline_cards.description",
          "discipline_cards.icon_name",
          "discipline_cards.url",
          "leaderboard.body",
          "leaderboard.link.link_text",
          "leaderboard.link.url",
          "leaderboard.link.target_blank",
          "leaderboard.image",
          "show_leaderboard",
          "notices",
          "hero_image"
        ]
      },
      "conditions": [
        "admin::is-creator"
      ]
    },
    {
      "action": "plugin::content-manager.explorer.update",
      "subject": "api::dmrb-home.dmrb-home",
      "properties": {
        "fields": [
          "page_title",
          "page_subheading",
          "body_text",
          "discipline_cards.title",
          "discipline_cards.description",
          "discipline_cards.icon_name",
          "discipline_cards.url",
          "leaderboard.body",
          "leaderboard.link.link_text",
          "leaderboard.link.url",
          "leaderboard.link.target_blank",
          "leaderboard.image",
          "show_leaderboard",
          "notices",
          "hero_image"
        ]
      },
      "conditions": [
        "admin::is-creator"
      ]
    },
    {
      "action": "plugin::content-manager.explorer.create",
      "subject": "api::dmrb-search-results.dmrb-search-results",
      "properties": {
        "fields": [
          "page_title",
          "search_example",
          "search_label",
          "sidebar_panel_snippets"
        ]
      },
      "conditions": [
        "admin::is-creator"
      ]
    },
    {
      "action": "plugin::content-manager.explorer.delete",
      "subject": "api::dmrb-search-results.dmrb-search-results",
      "properties": {},
      "conditions": [
        "admin::is-creator"
      ]
    },
    {
      "action": "plugin::content-manager.explorer.read",
      "subject": "api::dmrb-search-results.dmrb-search-results",
      "properties": {
        "fields": [
          "page_title",
          "search_example",
          "search_label",
          "sidebar_panel_snippets"
        ]
      },
      "conditions": [
        "admin::is-creator"
      ]
    },
    {
      "action": "plugin::content-manager.explorer.update",
      "subject": "api::dmrb-search-results.dmrb-search-results",
      "properties": {
        "fields": [
          "page_title",
          "search_example",
          "search_label",
          "sidebar_panel_snippets"
        ]
      },
      "conditions": [
        "admin::is-creator"
      ]
    },
    {
      "action": "plugin::content-manager.explorer.create",
      "subject": "api::dmrb-updates.dmrb-updates",
      "properties": {
        "fields": [
          "page_title",
          "sidebar_panel_snippets",
          "page_subheading",
          "notices"
        ]
      },
      "conditions": [
        "admin::is-creator"
      ]
    },
    {
      "action": "plugin::content-manager.explorer.delete",
      "subject": "api::dmrb-updates.dmrb-updates",
      "properties": {},
      "conditions": [
        "admin::is-creator"
      ]
    },
    {
      "action": "plugin::content-manager.explorer.read",
      "subject": "api::dmrb-updates.dmrb-updates",
      "properties": {
        "fields": [
          "page_title",
          "sidebar_panel_snippets",
          "page_subheading",
          "notices"
        ]
      },
      "conditions": [
        "admin::is-creator"
      ]
    },
    {
      "action": "plugin::content-manager.explorer.update",
      "subject": "api::dmrb-updates.dmrb-updates",
      "properties": {
        "fields": [
          "page_title",
          "sidebar_panel_snippets",
          "page_subheading",
          "notices"
        ]
      },
      "conditions": [
        "admin::is-creator"
      ]
    },
    {
      "action": "plugin::content-manager.explorer.create",
      "subject": "api::notices.notices",
      "properties": {
        "fields": [
          "name",
          "content",
          "type"
        ]
      },
      "conditions": [
        "admin::is-creator"
      ]
    },
    {
      "action": "plugin::content-manager.explorer.delete",
      "subject": "api::notices.notices",
      "properties": {},
      "conditions": [
        "admin::is-creator"
      ]
    },
    {
      "action": "plugin::content-manager.explorer.read",
      "subject": "api::notices.notices",
      "properties": {
        "fields": [
          "name",
          "content",
          "type"
        ]
      },
      "conditions": [
        "admin::is-creator"
      ]
    },
    {
      "action": "plugin::content-manager.explorer.update",
      "subject": "api::notices.notices",
      "properties": {
        "fields": [
          "name",
          "content",
          "type"
        ]
      },
      "conditions": [
        "admin::is-creator"
      ]
    },
    {
      "action": "plugin::content-manager.explorer.create",
      "subject": "api::snippets.snippets",
      "properties": {
        "fields": [
          "name",
          "content",
          "image"
        ]
      },
      "conditions": [
        "admin::is-creator"
      ]
    },
    {
      "action": "plugin::content-manager.explorer.delete",
      "subject": "api::snippets.snippets",
      "properties": {},
      "conditions": [
        "admin::is-creator"
      ]
    },
    {
      "action": "plugin::content-manager.explorer.read",
      "subject": "api::snippets.snippets",
      "properties": {
        "fields": [
          "name",
          "content",
          "image"
        ]
      },
      "conditions": [
        "admin::is-creator"
      ]
    },
    {
      "action": "plugin::content-manager.explorer.update",
      "subject": "api::snippets.snippets",
      "properties": {
        "fields": [
          "name",
          "content",
          "image"
        ]
      },
      "conditions": [
        "admin::is-creator"
      ]
    },
    {
      "action": "plugin::upload.assets.copy-link",
      "subject": null,
      "properties": {},
      "conditions": []
    },
    {
      "action": "plugin::upload.assets.create",
      "subject": null,
      "properties": {},
      "conditions": []
    },
    {
      "action": "plugin::upload.assets.download",
      "subject": null,
      "properties": {},
      "conditions": []
    },
    {
      "action": "plugin::upload.assets.update",
      "subject": null,
      "properties": {},
      "conditions": [
        "admin::is-creator"
      ]
    },
    {
      "action": "plugin::upload.read",
      "subject": null,
      "properties": {},
      "conditions": [
        "admin::is-creator"
      ]
    }
  ]
}