{
  "key": "plugin_content_manager_configuration_content_types::api::download-request.download-request",
  "value": {
    "uid": "api::download-request.download-request",
    "settings": {
      "bulkable": true,
      "filterable": true,
      "searchable": true,
      "pageSize": 10,
      "mainField": "state",
      "defaultSortBy": "state",
      "defaultSortOrder": "ASC"
    },
    "metadatas": {
      "id": {
        "edit": {},
        "list": {
          "label": "id",
          "searchable": true,
          "sortable": true
        }
      },
      "state": {
        "edit": {
          "label": "state",
          "description": "",
          "placeholder": "",
          "visible": true,
          "editable": true
        },
        "list": {
          "label": "state",
          "searchable": true,
          "sortable": true
        }
      },
      "jobId": {
        "edit": {
          "label": "jobId",
          "description": "",
          "placeholder": "",
          "visible": true,
          "editable": true
        },
        "list": {
          "label": "jobId",
          "searchable": true,
          "sortable": true
        }
      },
      "users_permissions_user": {
        "edit": {
          "label": "users_permissions_user",
          "description": "",
          "placeholder": "",
          "visible": true,
          "editable": true,
          "mainField": "username"
        },
        "list": {
          "label": "users_permissions_user",
          "searchable": true,
          "sortable": true
        }
      },
      "zipUrl": {
        "edit": {
          "label": "zipUrl",
          "description": "",
          "placeholder": "",
          "visible": true,
          "editable": true
        },
        "list": {
          "label": "zipUrl",
          "searchable": true,
          "sortable": true
        }
      },
      "completeDate": {
        "edit": {
          "label": "completeDate",
          "description": "",
          "placeholder": "",
          "visible": true,
          "editable": true
        },
        "list": {
          "label": "completeDate",
          "searchable": true,
          "sortable": true
        }
      },
      "searchParams": {
        "edit": {
          "label": "searchParams",
          "description": "",
          "placeholder": "",
          "visible": true,
          "editable": true
        },
        "list": {
          "label": "searchParams",
          "searchable": false,
          "sortable": false
        }
      },
      "validAt": {
        "edit": {
          "label": "validAt",
          "description": "",
          "placeholder": "",
          "visible": true,
          "editable": true
        },
        "list": {
          "label": "validAt",
          "searchable": true,
          "sortable": true
        }
      },
      "errorMessage": {
        "edit": {
          "label": "errorMessage",
          "description": "",
          "placeholder": "",
          "visible": true,
          "editable": true
        },
        "list": {
          "label": "errorMessage",
          "searchable": true,
          "sortable": true
        }
      },
      "createdAt": {
        "edit": {
          "label": "createdAt",
          "description": "",
          "placeholder": "",
          "visible": false,
          "editable": true
        },
        "list": {
          "label": "createdAt",
          "searchable": true,
          "sortable": true
        }
      },
      "updatedAt": {
        "edit": {
          "label": "updatedAt",
          "description": "",
          "placeholder": "",
          "visible": false,
          "editable": true
        },
        "list": {
          "label": "updatedAt",
          "searchable": true,
          "sortable": true
        }
      }
    },
    "layouts": {
      "edit": [
        [
          {
            "name": "state",
            "size": 6
          },
          {
            "name": "jobId",
            "size": 6
          }
        ],
        [
          {
            "name": "zipUrl",
            "size": 6
          },
          {
            "name": "completeDate",
            "size": 6
          }
        ],
        [
          {
            "name": "validAt",
            "size": 6
          },
          {
            "name": "errorMessage",
            "size": 6
          }
        ],
        [
          {
            "name": "searchParams",
            "size": 12
          }
        ]
      ],
      "editRelations": [
        "users_permissions_user"
      ],
      "list": [
        "id",
        "state",
        "jobId",
        "users_permissions_user"
      ]
    }
  },
  "type": "object",
  "environment": null,
  "tag": null
}