{
  "key": "plugin_content_manager_configuration_content_types::api::dmrb-contact-page.dmrb-contact-page",
  "value": {
    "uid": "api::dmrb-contact-page.dmrb-contact-page",
    "settings": {
      "bulkable": true,
      "filterable": true,
      "searchable": true,
      "pageSize": 10,
      "mainField": "page_title",
      "defaultSortBy": "page_title",
      "defaultSortOrder": "ASC"
    },
    "metadatas": {
      "id": {
        "edit": {},
        "list": {
          "label": "id",
          "searchable": true,
          "sortable": true
        }
      },
      "page_title": {
        "edit": {
          "label": "page_title",
          "description": "",
          "placeholder": "",
          "visible": true,
          "editable": true
        },
        "list": {
          "label": "page_title",
          "searchable": true,
          "sortable": true
        }
      },
      "page_subheading": {
        "edit": {
          "label": "page_subheading",
          "description": "",
          "placeholder": "",
          "visible": true,
          "editable": true
        },
        "list": {
          "label": "page_subheading",
          "searchable": true,
          "sortable": true
        }
      },
      "body_text": {
        "edit": {
          "label": "body_text",
          "description": "",
          "placeholder": "",
          "visible": true,
          "editable": true
        },
        "list": {
          "label": "body_text",
          "searchable": false,
          "sortable": false
        }
      },
      "createdAt": {
        "edit": {
          "label": "createdAt",
          "description": "",
          "placeholder": "",
          "visible": false,
          "editable": true
        },
        "list": {
          "label": "createdAt",
          "searchable": true,
          "sortable": true
        }
      },
      "updatedAt": {
        "edit": {
          "label": "updatedAt",
          "description": "",
          "placeholder": "",
          "visible": false,
          "editable": true
        },
        "list": {
          "label": "updatedAt",
          "searchable": true,
          "sortable": true
        }
      }
    },
    "layouts": {
      "list": [
        "id",
        "page_title",
        "page_subheading",
        "createdAt"
      ],
      "editRelations": [],
      "edit": [
        [
          {
            "name": "page_title",
            "size": 6
          },
          {
            "name": "page_subheading",
            "size": 6
          }
        ],
        [
          {
            "name": "body_text",
            "size": 12
          }
        ]
      ]
    }
  },
  "type": "object",
  "environment": null,
  "tag": null
}