{
  "key": "plugin_content_manager_configuration_content_types::api::saved-document.saved-document",
  "value": {
    "uid": "api::saved-document.saved-document",
    "settings": {
      "bulkable": true,
      "filterable": true,
      "searchable": true,
      "pageSize": 10,
      "mainField": "node_id",
      "defaultSortBy": "node_id",
      "defaultSortOrder": "ASC"
    },
    "metadatas": {
      "id": {
        "edit": {},
        "list": {
          "label": "id",
          "searchable": true,
          "sortable": true
        }
      },
      "node_id": {
        "edit": {
          "label": "node_id",
          "description": "",
          "placeholder": "",
          "visible": true,
          "editable": true
        },
        "list": {
          "label": "node_id",
          "searchable": true,
          "sortable": true
        }
      },
      "title": {
        "edit": {
          "label": "title",
          "description": "",
          "placeholder": "",
          "visible": true,
          "editable": true
        },
        "list": {
          "label": "title",
          "searchable": true,
          "sortable": true
        }
      },
      "users_permissions_user": {
        "edit": {
          "label": "users_permissions_user",
          "description": "",
          "placeholder": "",
          "visible": true,
          "editable": true,
          "mainField": "username"
        },
        "list": {
          "label": "users_permissions_user",
          "searchable": true,
          "sortable": true
        }
      },
      "lastNotified": {
        "edit": {
          "label": "lastNotified",
          "description": "",
          "placeholder": "",
          "visible": true,
          "editable": true
        },
        "list": {
          "label": "lastNotified",
          "searchable": true,
          "sortable": true
        }
      },
      "createdAt": {
        "edit": {
          "label": "createdAt",
          "description": "",
          "placeholder": "",
          "visible": false,
          "editable": true
        },
        "list": {
          "label": "createdAt",
          "searchable": true,
          "sortable": true
        }
      },
      "updatedAt": {
        "edit": {
          "label": "updatedAt",
          "description": "",
          "placeholder": "",
          "visible": false,
          "editable": true
        },
        "list": {
          "label": "updatedAt",
          "searchable": true,
          "sortable": true
        }
      }
    },
    "layouts": {
      "list": [
        "id",
        "node_id",
        "title",
        "users_permissions_user"
      ],
      "edit": [
        [
          {
            "name": "node_id",
            "size": 6
          },
          {
            "name": "title",
            "size": 6
          }
        ],
        [
          {
            "name": "lastNotified",
            "size": 6
          }
        ]
      ],
      "editRelations": [
        "users_permissions_user"
      ]
    }
  },
  "type": "object",
  "environment": null,
  "tag": null
}