{
  "key": "plugin_content_manager_configuration_content_types::api::html-document-request.html-document-request",
  "value": {
    "uid": "api::html-document-request.html-document-request",
    "settings": {
      "bulkable": true,
      "filterable": true,
      "searchable": true,
      "pageSize": 10,
      "mainField": "reference",
      "defaultSortBy": "reference",
      "defaultSortOrder": "ASC"
    },
    "metadatas": {
      "id": {
        "edit": {},
        "list": {
          "label": "id",
          "searchable": true,
          "sortable": true
        }
      },
      "reference": {
        "edit": {
          "label": "reference",
          "description": "",
          "placeholder": "",
          "visible": true,
          "editable": true
        },
        "list": {
          "label": "reference",
          "searchable": true,
          "sortable": true
        }
      },
      "title": {
        "edit": {
          "label": "title",
          "description": "",
          "placeholder": "",
          "visible": true,
          "editable": true
        },
        "list": {
          "label": "title",
          "searchable": true,
          "sortable": true
        }
      },
      "node_id": {
        "edit": {
          "label": "node_id",
          "description": "",
          "placeholder": "",
          "visible": true,
          "editable": true
        },
        "list": {
          "label": "node_id",
          "searchable": true,
          "sortable": true
        }
      },
      "createdAt": {
        "edit": {
          "label": "createdAt",
          "description": "",
          "placeholder": "",
          "visible": false,
          "editable": true
        },
        "list": {
          "label": "createdAt",
          "searchable": true,
          "sortable": true
        }
      },
      "updatedAt": {
        "edit": {
          "label": "updatedAt",
          "description": "",
          "placeholder": "",
          "visible": false,
          "editable": true
        },
        "list": {
          "label": "updatedAt",
          "searchable": true,
          "sortable": true
        }
      }
    },
    "layouts": {
      "list": [
        "id",
        "reference",
        "title",
        "node_id"
      ],
      "editRelations": [],
      "edit": [
        [
          {
            "name": "reference",
            "size": 6
          },
          {
            "name": "title",
            "size": 6
          }
        ],
        [
          {
            "name": "node_id",
            "size": 6
          }
        ]
      ]
    }
  },
  "type": "object",
  "environment": null,
  "tag": null
}