{
  "key": "plugin_content_manager_configuration_content_types::api::dmrb-updates.dmrb-updates",
  "value": {
    "uid": "api::dmrb-updates.dmrb-updates",
    "settings": {
      "bulkable": true,
      "filterable": true,
      "searchable": true,
      "pageSize": 10,
      "mainField": "page_title",
      "defaultSortBy": "page_title",
      "defaultSortOrder": "ASC"
    },
    "metadatas": {
      "id": {
        "edit": {},
        "list": {
          "label": "id",
          "searchable": true,
          "sortable": true
        }
      },
      "page_title": {
        "edit": {
          "label": "page_title",
          "description": "",
          "placeholder": "",
          "visible": true,
          "editable": true
        },
        "list": {
          "label": "page_title",
          "searchable": true,
          "sortable": true
        }
      },
      "sidebar_panel_snippets": {
        "edit": {
          "label": "sidebar_panel_snippets",
          "description": "",
          "placeholder": "",
          "visible": true,
          "editable": true,
          "mainField": "name"
        },
        "list": {
          "label": "sidebar_panel_snippets",
          "searchable": false,
          "sortable": false
        }
      },
      "page_subheading": {
        "edit": {
          "label": "page_subheading",
          "description": "",
          "placeholder": "",
          "visible": true,
          "editable": true
        },
        "list": {
          "label": "page_subheading",
          "searchable": true,
          "sortable": true
        }
      },
      "notices": {
        "edit": {
          "label": "notices",
          "description": "",
          "placeholder": "",
          "visible": true,
          "editable": true,
          "mainField": "name"
        },
        "list": {
          "label": "notices",
          "searchable": false,
          "sortable": false
        }
      },
      "signed_out_alert": {
        "edit": {
          "label": "signed_out_alert",
          "description": "",
          "placeholder": "",
          "visible": true,
          "editable": true
        },
        "list": {
          "label": "signed_out_alert",
          "searchable": true,
          "sortable": true
        }
      },
      "createdAt": {
        "edit": {
          "label": "createdAt",
          "description": "",
          "placeholder": "",
          "visible": false,
          "editable": true
        },
        "list": {
          "label": "createdAt",
          "searchable": true,
          "sortable": true
        }
      },
      "updatedAt": {
        "edit": {
          "label": "updatedAt",
          "description": "",
          "placeholder": "",
          "visible": false,
          "editable": true
        },
        "list": {
          "label": "updatedAt",
          "searchable": true,
          "sortable": true
        }
      }
    },
    "layouts": {
      "list": [
        "id",
        "page_title",
        "sidebar_panel_snippets",
        "page_subheading"
      ],
      "edit": [
        [
          {
            "name": "page_title",
            "size": 6
          },
          {
            "name": "page_subheading",
            "size": 6
          }
        ],
        [
          {
            "name": "signed_out_alert",
            "size": 6
          }
        ]
      ],
      "editRelations": [
        "notices",
        "sidebar_panel_snippets"
      ]
    }
  },
  "type": "object",
  "environment": null,
  "tag": null
}