{
  "name": "Authenticated",
  "description": "Default role given to authenticated user.",
  "type": "authenticated",
  "permissions": [
    {
      "action": "api::download-request.download-request.create"
    },
    {
      "action": "api::download-request.download-request.update"
    },
    {
      "action": "api::download-request.download-request.user"
    },
    {
      "action": "api::saved-document.saved-document.create"
    },
    {
      "action": "api::saved-document.saved-document.delete"
    },
    {
      "action": "api::saved-document.saved-document.find"
    },
    {
      "action": "api::saved-document.saved-document.findOne"
    },
    {
      "action": "api::saved-document.saved-document.latestUpdates"
    },
    {
      "action": "api::saved-document.saved-document.savedDocumentsDetails"
    },
    {
      "action": "api::saved-document.saved-document.update"
    },
    {
      "action": "plugin::users-permissions.auth.connect"
    },
    {
      "action": "plugin::users-permissions.user.create"
    },
    {
      "action": "plugin::users-permissions.user.find"
    },
    {
      "action": "plugin::users-permissions.user.findOne"
    },
    {
      "action": "plugin::users-permissions.user.me"
    },
    {
      "action": "plugin::users-permissions.user.update"
    }
  ]
}